Baseball2.R
…
#summary(lm(TARGET_WINS~TEAM_BATTING_H+TEAM_BATTING_2B+TEAM_BATTING_3B+TEAM_BATTING_HR+TEAM_BATTING_BB+TEAM_BATTING_HBP+TEAM_BATTING_SO+TEAM_BASERUN_SB+TEAM_BASERUN_CS+TEAM_FIELDING_E+TEAM_FIELDING_DP+TEAM_PITCHING_BB+TEAM_PITCHING_H+TEAM_PITCHING_HR+TEAM_PITCHING_SO, data=mydata))

###PCA#####
xdata <- subset(mydata, select = -c(TARGET_WINS))
xdata

## # A tibble: 1,835 x 13
##    TEAM_BATTING_H TEAM_BATTING_2B TEAM_BATTING_3B TEAM_BATTING_HR
##             <dbl>           <dbl>           <dbl>           <dbl>
##  1           1339             219              22             190
##  2           1377             232              35             137
##  3           1387             209              38              96
##  4           1297             186              27             102
##  5           1279             200              36              92
##  6           1244             179              54             122
##  7           1273             171              37             115
##  8           1391             197              40             114
##  9           1271             213              18              96
## 10           1305             179              27              82
## # ... with 1,825 more rows, and 9 more variables: TEAM_BATTING_BB <dbl>,
## #   TEAM_BATTING_SO <dbl>, TEAM_BASERUN_SB <dbl>, TEAM_PITCHING_H <dbl>,
## #   TEAM_PITCHING_HR <dbl>, TEAM_PITCHING_BB <dbl>, TEAM_PITCHING_SO <dbl>,
## #   TEAM_FIELDING_E <dbl>, TEAM_FIELDING_DP <dbl>
…
